,dataset,subject,avg_MSI_left,avg_MSI_right,ovl_MSI
0,Inria,A11,-0.10192335375746997,0.01744026910234483,-0.08448308465512513
1,Inria,A10,0.5147352484934143,0.36062188751138874,0.8753571360048031
2,Inria,A13,0.08801418808693992,0.17136432813681807,0.25937851622375796
3,Inria,A12,0.042526330189516216,-0.015291413646594459,0.027234916542921758
